teste1@teste.com,Ana Flávia Elias Kopke,Neudimir José Kopke,Ana Cristina Elias,(34) 3219-0809,2001-01-11T00:00:00.000Z,"Rua Francisco Ant. Oliveira, 935/302-B. M - (Antiga 35)",19,1900
teste2@teste.com,Ana Laura Nascimento,Marcos Roberto Leite do Nascimento,Keila Soares André Leite do Nascimento,(34) 3210-9002,2001-09-22T00:00:00.000Z,"Rua Lurdes de Carvalho, 2217 - (Antiga 41)",19,1901
teste3@teste.com,Clara Fernandes Ribeiro,Fernando Ribeiro de Faria,Ilene Ciria Fernades,3219-7615,2002-01-16T00:00:00.000Z,"Av. Sebastião Rangel, 982 - (Antiga 31)",19,1902
teste4@teste.com,Ian Eduardo de Sena Ferreira,Sérgio Júnior Eduardo Ferreira,Gláucia Mendes Eduardo Ferreira,3216-0448,2001-06-06T00:00:00.000Z,"Rua Hildebrando Oliva, 348 - (Antiga 2)",19,1903
teste5@teste.com,Iasmin Moreira Normandia,João Normandia dos Santos,Simone Alves Moreira,9662-8797,2002-04-28T00:00:00.000Z,"Rua João Limirio dos Anjos, 624 - (Antiga 40)",19,1904
teste6@teste.com,João Vitor Teixeira Peres,Jacques Roberto Peres,Cleuza Teixeira de Oliveira Peres,8857-7489,2003-07-23T00:00:00.000Z,"Rua Sebastião Rangel, 350/202 - (Antiga 31)",19,1905
teste7@teste.com,Larissa Teixeira Linhares,Luiz Antônio Linhares,Rosangela Teixeira da Silva,3215-7989,1998-10-22T00:00:00.000Z,"Rua José Leles França,292 - (Antiga 23)",19,1906
teste8@teste.com,Micaella Alves de Oliveira,Jefferson Alves de Oliveira,Fernanda Aparecida Lima,9244-6556,2002-10-03T00:00:00.000Z,"Rua Barão de Ouro Preto, 655 - B. Pampulha",19,1907
teste9@teste.com,Pedro Antônio Medeiros Machado,Antônio Machado Souza Netto,Leila Silva M. Machado,9115-7616,2003-12-31T00:00:00.000Z,"Rua Sebastião Rangel, 194 - (Antiga 31)",19,1908
teste10@teste.com,Samuel de Paula Pacheco,Alexandre de Paula Pacheco,Alessandra Cristina de Jesus,3217-5932,2001-01-25T00:00:00.000Z,"Rua Mário Segato, 25 - B. Segismundo Pereira",19,1909
teste11@teste.com,Vanessa Pontes Ferreira,Renato de Sousa Ferreira,Cleuza Cristina Pontes,9167-6652,2001-03-07T00:00:00.000Z,"Av. Salomão Abrahão, 352",19,1910
teste12@teste.com,Ana Clara Lino  Macedo,Angelo Flávio de Oliveira Macedo,Janaina Lobato Lino Macedo,3231-6391,2002-12-01T00:00:00.000Z,"Rua Mário Augusto Pinto, 140 - (Antiga 53)",19,1911
teste13@teste.com,Ana Luiza Ramos da Silva,Djalma Romes da Silva,Ananeli Ramos da Silva,9281-1716,2002-05-06T00:00:00.000Z,"Rua Salvador, 925/303 Bl. B - B. Aparecida",19,1912
teste14@teste.com,Carolina Maria Abreu Silva,Lester José da Silva,Fernanda Lima de Abreu Silva,3237-4024,2001-11-26T00:00:00.000Z,"Rua Professora Maria Alves Castilho, 224 - (Antiga 37)",19,1913
teste15@teste.com,Emiliana Ferreira  Silva,Jones Wayne da Silva,Rosifrance Ferreira da Silva,3216-2114,1999-07-05T00:00:00.000Z,"Rua João Balbino, 752 - (Antiga 38)",19,1914
teste16@teste.com,Fernanda Cristina Rodrigues Giaretta,Luiz Fernando Giaretta Silva,Janaína Lopes Rodrigues Giaretta,3231-8189,1997-10-29T00:00:00.000Z,"Rua Mário Teodoro de Oliveira, 3061 - B. Alvorada",19,1915
teste17@teste.com,Igor Silva,Ernesto de Oliveira Silva,Maria Helena Soares Santos,9217-5184,1999-12-21T00:00:00.000Z,"Rua Alberto Alves Cabral, 413 - (Antiga 18)",19,1916
teste18@teste.com,Jade Emanuelle Bueno Souza,Alex Suza Reis,Neuza Vieira Bueno,3231-6217,2002-01-16T00:00:00.000Z,"Rua Antônio Rezende Chavez, 32 Fundo - (Antiga 24)",19,1917
teste19@teste.com,Júlia Aparecida Rodrigues Costa,Rildo Ap. Costa,Edna Oliveira Rodrigues,3216-5835,2002-07-19T00:00:00.000Z,"Rua Sebastiana Arantes Fonseca, 700 - (Antiga 22)",19,1918
teste20@teste.com,Nathália Camilo Dias,Sebastião Camilo Dias,Tania Ribeiro Leite do Nascimento,3215-8137,2000-05-08T00:00:00.000Z,Av. Toledo. 884 - B. Jardim Aurora,19,1919
teste21@teste.com,Stéffany Laureth Borges,Jeferson Borges,Roseli Laureth,3210-6030,2002-12-19T00:00:00.000Z,"Rua João ângelo Schiavinato, 397 - (Antiga 43)",19,1920
teste22@teste.com,Amanda Pontes Vieira Costa,Willian Leandro da Costa,Kelen Pontes Vieira,9234-0183,2002-02-04T00:00:00.000Z,"Rua Alberto Alves Cabral, 976 - (Antiga 18)",19,1921
teste23@teste.com,Ana Laura Mendonça Pereira,Alcir Sidney Pereira,Simone Silva de Mendonça,9992-7704,2001-12-24T00:00:00.000Z,"Rua Sebastião Severino Ribeiro, 144",19,1922
teste24@teste.com,Djalma Ramos da Silva,Djalma Romes da Silva,Ananeli Ramos da Silva,9281-1716,1999-07-21T00:00:00.000Z,"Rua Salvador, 925/303 Bl. B - B. Aparecida",19,1923
teste25@teste.com,Isabela Beatriz Avelar Raposo,Gaspar Jardel Raposo,Solange Avelar Raposo,3215-0118,1998-05-18T00:00:00.000Z,"Rua Jornalista João de Oliveira, 480/101 - (Antiga 30)",19,1924
teste26@teste.com,João Vitor Fernandes Faleiros Veloso,Wander Faleiros Veloso,Kênia Rodrigues de Mendonça,9124-1266,2003-01-16T00:00:00.000Z,"Rua Sebastião Rangel, 350/202 Bl. H - (Antiga 31)",19,1925
teste27@teste.com,Karoline Rossi Gomes de Moraes,Reginaldo Leonardo de Moraes,Raquel Rossi Gomes,9150-3319,2001-06-07T00:00:00.000Z,"Rua Antônio Rezende Chaves, 1618 - (Antiga 24)",19,1926
teste28@teste.com,Laura Tavares Guimarães,Paulo Roberto Guimarães,Gilda Borges Silva,9966-4668,1999-03-17T00:00:00.000Z,"Av. Dr. Laerte Vieira Gonçalves, 1917",19,1927
teste29@teste.com,Maria Fernanda Moura Carrijo,Dianary Gomes Carrijo,Alessandra Moura Carrijo,3236-1610,2002-02-26T00:00:00.000Z,"Rua Manoel Serralha, 557 - (Antiga 29)",19,1928
teste30@teste.com,Nathielly Ávila de Oliveira,Odair Mauro de Oliveira,Nair Ávila de Oliveira,3254-6942,2001-02-28T00:00:00.000Z,"Rua Arlindo Gomes Rodrigues,1702 - (Antiga 39)",19,1929
teste31@teste.com,Pablo Gonçalves Mendonça,Paulo José de Mendonça,Ana Cristina Gonçalves Mendonça,8841-9489,1999-01-07T00:00:00.000Z,"Rua Professora Juvenilha dos Santos, 470 - (Antiga 0)",19,1930
teste32@teste.com,Rafael Oliveira Santos França,Fernando França Mendes,Nara Oliveira Santos,9971-0124,2003-05-13T00:00:00.000Z,"Rua Alfredo Simão, 85 - B. Segismundo Pereira",19,1931
teste33@teste.com,Ana Júlia Soares de Oliveira,José Vander Freitas Oliveira,Neiva Soares Rabelo,9302-4477,2001-11-22T00:00:00.000Z,"Rua Salvador, 925/01 Bl. A - B. Brasil",19,1932
teste34@teste.com,Beatriz Megumi da Silva,Danival Lucas da Silva,Mairy Akio Fucada,3210-0442,2001-10-31T00:00:00.000Z,"Rua Alfredo Vilela Andrade, 152 - Morada da Colina",19,1933
teste35@teste.com,Giovana Rodrigues Machado,Rogério Silva Machado,Luciene Rodrigues,9121-8174,2000-02-12T00:00:00.000Z,"Rua Bahia, 913 - B. Brasil",19,1934
teste36@teste.com,Izabella Aline Portela da Silva,Paulo Henrique da Silva,Shirley Darlene Portela,9659-0279,2001-01-27T00:00:00.000Z,"Av. Segismundo Pereira, 3510",19,1935
teste37@teste.com,João Victor Furtado Zebral,Luiz Gustavo,Marcella Furtado de Souza Moreira,3255-4011,2001-07-27T00:00:00.000Z,,19,1936
teste38@teste.com,Lara Alves da Costa,Sergio Caixeta Silva,Kariny Alves Caixeta Silva,9793-5961,,Jardim Prosperidade,19,1937
teste39@teste.com,Luiza Sousa da Silva,Wesley Pereira da Silva,Daiane Borges Sousa do Couto,3216-5169,2002-09-03T00:00:00.000Z,"Rua João Balbino, 713 - (Antiga 38)",19,1938
teste40@teste.com,Maria Luiza Ramos Garcia,Ricardo Garcia Santos,Jucielle Silva Ramos,3236-0032,2001-10-15T00:00:00.000Z,"Rua Atílio Valentini, 609 Casa 1 - (Antiga 1)",19,1939
teste41@teste.com,Norraine Nicole da Silva Sardinha,Nazareno Loureiro Sardinha,Raimunda Nonata da Silva,3213-4135,2000-12-12T00:00:00.000Z,"Rua Patrulheiro Osmar Tavares, 1117 - (Antiga 21)",19,1940
teste42@teste.com,Rafaella Silva de Vasconcelo,Vicente Paula de Vasconcelos,Raquel Ap. Silva de Vasconcelos,3219-8800,2001-04-11T00:00:00.000Z,"Rua Oliveira Lima, 512 - B. Pampulha",19,1941
teste43@teste.com,Amandha Maria Reis de Morais,Hugo Albuquerque de Morais,Simone Regina dos Reis,8863-7018,2001-04-02T00:00:00.000Z,"Rua Oliveira Lima, 999 - B. Pamulha",19,1942
teste44@teste.com,Ana Paula Aparecida Caetano Pereira,Nilton Francisco Pereira,Maria Aparecida Caetano,3217-6000,2001-02-10T00:00:00.000Z,"Rua Orozimbo Ribeiro, 247/101 - (Antiga 27)",19,1943
teste45@teste.com,Angélica Reis Silveira,Marcio Ferreira da Silveira ,Eliane Cristina dos Reis,3226-4292,2000-01-18T00:00:00.000Z,"Av. Rondon Pacheco, 5682/21 - B. Tibery",19,1944
teste46@teste.com,Danyelle Miranda Macedo Silva,Leonardo Macedo Silva,Melissa Miranda Machado,3222-0303,1999-10-04T00:00:00.000Z,"Rua Sebastião Rangel, 350/401 Bl H - (Antiga 31)",19,1945
teste47@teste.com,Gabriel Felipe Gomes Silva,Flávio Filipe da Silva,Raquel Teixeira Gomes Silva,9941-2344,2000-08-07T00:00:00.000Z,"Rua Armando Tucci, 452/204 - (Antiga 34)",19,1946
teste48@teste.com,Isabela Batista de Matos,John Clemmer de Mattos,Letícia Maria Batista de Mattos,3210-5944,2001-03-06T00:00:00.000Z,Rua João Limirio dos Anjos 2065/101 Bl. 06 - (Antiga 40),19,1947
teste49@teste.com,João Pedro Mendonça Pereira,Alcir Sidney Pereira,Simone Silva de Mendonça,9992-7704,2003-12-28T00:00:00.000Z,"Rua Sebastião Severino Ribeiro, 144 - B. Santa Luzia",19,1948
teste50@teste.com,Letícia Matias Costa,Adão Eliandison Ferreira da Costa,Glacinei de Fernandes Matias,9167-5216,2002-04-11T00:00:00.000Z,"Av. Domingos de Freitas, 1452 ",19,1949
teste51@teste.com,Nathália Pereira de Oliveira,Manoel Pereira Oliveira Júnior,Renata Pereira Oliveira,3214-0205,1999-12-29T00:00:00.000Z,"Av. Maria Lemes de Sousa, 32 - B. Granada",19,1950
teste52@teste.com,Pedro Henrique Menezes Santos,Pedro dos Santos,Rosangela Gomes de Menezes,9131-9767,2001-05-30T00:00:00.000Z,"Av. Ortizio Borges, 1292",19,1951
teste53@teste.com,Thiago Pacheco Rocha,Ed Lúcio Pereira de Góis Rocha,Cláudia Paula Pacheco Rocha,3227-8008,2003-03-27T00:00:00.000Z,"Av. Ana Godoy de Souza, 1120",19,1952
